{
  "type": "service_account",
  "project_id": "socialapp-16d46",
  "private_key_id": "43e00545dedc16c18a437aba50385b3e662b1853",
  "private_key": "-----BEGIN PRIVATE KEY-----\nMIIEvgIBADANBgkqhkiG9w0BAQEFAASCBKgwggSkAgEAAoIBAQCmIVV6V9iatrJr\nk5Purr4BawK06wKwnA3FrzcUhpf9N9B3J1mH1LDealEPokNHLxI4teMKw2gPEzRS\nzVIeGHzxtlVeBJbNABloXexEtgDTeQnhNX+HWBQFzRJMO0z4FX8UmGY0zn+NTdtv\nC6wQ+TWlmm0WBMBHhJtQYRV2wSA6RSwD5HBPHi/jgV98BXJX8qCNKTavO9yZTYxG\nj2XlVzNRapV4s/Job6+AH2Ads5N13nHFQhPJZVpCSFaCb1baNdihO6oLaBGLxAGC\nnJt07G4BnS5ApmG9h0fkXWkqXOSAYWr9p8KIXnuGRux2A+VUeIIl4ntK8IOzr413\nED0aLvZBAgMBAAECggEALncAS1mqkYsr1/7Mz2M8bXUaqrNYa0EacQISq8EBXadw\nvQLafa01Ut/1kCPYIV6+//GPcQE6Z4z9g3M91oEO4SQYOFWcP/YZJSGv5X/qNzuR\nUdX+t0IhR4YV6hBj9Lc+deoyG+7tqf3us95V3+Fz6b+JZzEo/lfOgOrGcBKQCvu+\nN1g9jsL8TFNOdl1qOirP8LK7Yd62Nx+V/L+vGrdyXuzbPGFkNf+nDMc+18m0Sd67\npYGu1wLJsChlmdWlCRwDmNwqVsfqOFXM9ijaF8lEfH0bU4XeAiydfHynW/Yhpgkl\nZTA2N1o4uqJWvL4LMJ6GTedDrdn6yKas+yMqHrujaQKBgQDcgUlCD6rM5gFEE0Aq\nEo0eHUWuqik4h5C9ylZsRDjm3L1elSA9Vf4srlj4bBQUMX/boQrBnjiGNysEQzZh\ny3U53bK1FtJIds8MnG5h+eeIggyJ0XuFbpK3O17toTrtVnerHNQPHYtU77n0Mh41\nE5YuhD3rJjcTlMqxhM8IwnzofwKBgQDA31XP4N08SR5qqG4gBsH2z2FPQLwpQMdE\nBRh96VDXTWL3zOpC68l0kWMG6/dQvNr520tJquMTvnBlPNvYuUPH1xAh+BndE/N1\nRttmzktdsdIsmH2aTb7bHMWO/vVc6z/txDOoI4Hk9ooLsOgCAI9Tp0NkaerltQKO\nb8fZSNbBPwKBgQDLY61Q8+aVrKoKQr9yjz3/QvzdSTNQYysNBK+Gmb7qoz1BGshs\nCv+x8vc53Wb/4VCQIxEq2mhE1GonOl/VALgWMfn+sxgvovcEKN5gHQSFk39BOCp5\nPy6xOGAtTARwmssy2Bp5/sRgCec56WiXiIOEUJJUbiFrPFliOKBG8i4IvQKBgCBa\nFfnNnS6MkUaQxBApMgXlWUxC7oz46bPWKvqL1VyYBX7NZ4ocJOmhrXuuvwhS9WQt\nzZ4oxPg93HqOz821ndH6mCEqjaQQwaitXwYKmoe32SpT1dW5LsdwNw86YwvYBhwq\n6gNNGW+/jv5RCUm0sFX2244PWjB3wVsFEv+2gRdfAoGBAMSTt+0dls9eUd4FEKWB\njIxy9bAMy+SVznkbix1p12CJ5oLwl/8Oif3XJIney1fP+Y33GxhKs/N6yeHmKRz7\nfNSetzZ+wZAoedHxxqIZbQZUtq/Lez26/DunepSES9yyUTEQBX+df5qRp/gpLor5\nbTaQs5ixA4xfW6AEgo2W29+G\n-----END PRIVATE KEY-----\n",
  "client_email": "firebase-adminsdk-bwvi1@socialapp-16d46.iam.gserviceaccount.com",
  "client_id": "112286499078136065132",
  "auth_uri": "https://accounts.google.com/o/oauth2/auth",
  "token_uri": "https://oauth2.googleapis.com/token",
  "auth_provider_x509_cert_url": "https://www.googleapis.com/oauth2/v1/certs",
  "client_x509_cert_url": "https://www.googleapis.com/robot/v1/metadata/x509/firebase-adminsdk-bwvi1%40socialapp-16d46.iam.gserviceaccount.com"
}
